{  
       "id":"0",
       "nombre":"text",
       "fdn":"text",
       "direcciondomicilio":"text",
       "direccionlocal":"text",
       "numerocedula":100,
       "instruccion":"text",
       "ocupacion":"text",
       "experiencialaboral":"text",
       "numerodecontacto":100,
       "disponible":true,
       "fotoUrl":"text"
}